<svg width="25" height="26" viewBox="0 0 25 26" fill="none" xmlns="http://www.w3.org/2000/svg">
<path d="M12.5 25.5C15.8152 25.5 18.9946 24.183 21.3388 21.8388C23.683 19.4946 25 16.3152 25 13C25 9.68479 23.683 6.50537 21.3388 4.16117C18.9946 1.81696 15.8152 0.5 12.5 0.5C9.18479 0.5 6.00537 1.81696 3.66117 4.16117C1.31696 6.50537 0 9.68479 0 13C0 16.3152 1.31696 19.4946 3.66117 21.8388C6.00537 24.183 9.18479 25.5 12.5 25.5ZM10.5469 16.9062H11.7188V13.7812H10.5469C9.89746 13.7812 9.375 13.2588 9.375 12.6094C9.375 11.96 9.89746 11.4375 10.5469 11.4375H12.8906C13.54 11.4375 14.0625 11.96 14.0625 12.6094V16.9062H14.4531C15.1025 16.9062 15.625 17.4287 15.625 18.0781C15.625 18.7275 15.1025 19.25 14.4531 19.25H10.5469C9.89746 19.25 9.375 18.7275 9.375 18.0781C9.375 17.4287 9.89746 16.9062 10.5469 16.9062ZM12.5 6.75C12.9144 6.75 13.3118 6.91462 13.6049 7.20765C13.8979 7.50067 14.0625 7.8981 14.0625 8.3125C14.0625 8.7269 13.8979 9.12433 13.6049 9.41735C13.3118 9.71038 12.9144 9.875 12.5 9.875C12.0856 9.875 11.6882 9.71038 11.3951 9.41735C11.1021 9.12433 10.9375 8.7269 10.9375 8.3125C10.9375 7.8981 11.1021 7.50067 11.3951 7.20765C11.6882 6.91462 12.0856 6.75 12.5 6.75Z" fill="#284754"/>
</svg>
